<?xml version="1.0" encoding="UTF-8" standalone="no"?>
<svg
   xmlns:lucid="lucid"
   xmlns:dc="http://purl.org/dc/elements/1.1/"
   xmlns:cc="http://creativecommons.org/ns#"
   xmlns:rdf="http://www.w3.org/1999/02/22-rdf-syntax-ns#"
   xmlns:svg="http://www.w3.org/2000/svg"
   xmlns="http://www.w3.org/2000/svg"
   xmlns:xlink="http://www.w3.org/1999/xlink"
   xmlns:sodipodi="http://sodipodi.sourceforge.net/DTD/sodipodi-0.dtd"
   xmlns:inkscape="http://www.inkscape.org/namespaces/inkscape"
   width="506.60831"
   height="398.16672"
   version="1.1"
   id="svg199"
   sodipodi:docname="Capitulo4Ejemplo6.svg"
   inkscape:version="1.0.1 (3bc2e813f5, 2020-09-07, custom)">
  <metadata
     id="metadata205">
    <rdf:RDF>
      <cc:Work
         rdf:about="">
        <dc:format>image/svg+xml</dc:format>
        <dc:type
           rdf:resource="http://purl.org/dc/dcmitype/StillImage" />
        <dc:title></dc:title>
      </cc:Work>
    </rdf:RDF>
  </metadata>
  <defs
     id="defs203">
    <clipPath
       clipPathUnits="userSpaceOnUse"
       id="clipPath1032">
      <rect
         style="fill:#0000ff;fill-rule:evenodd"
         id="rect1034"
         width="506.60831"
         height="398.16672"
         x="672.00073"
         y="143.07118" />
    </clipPath>
  </defs>
  <sodipodi:namedview
     pagecolor="#ffffff"
     bordercolor="#666666"
     borderopacity="1"
     objecttolerance="10"
     gridtolerance="10"
     guidetolerance="10"
     inkscape:pageopacity="0"
     inkscape:pageshadow="2"
     inkscape:window-width="1366"
     inkscape:window-height="768"
     id="namedview201"
     showgrid="false"
     inkscape:zoom="0.46473771"
     inkscape:cx="308.71309"
     inkscape:cy="260.15655"
     inkscape:window-x="0"
     inkscape:window-y="0"
     inkscape:window-maximized="1"
     inkscape:current-layer="svg199" />
  <g
     transform="translate(-672.00073,-143.07118)"
     lucid:page-tab-id="0_0"
     id="g197"
     clip-path="url(#clipPath1032)">
    <path
       d="M 0,0 H 1870.4 V 1323.2 H 0 Z"
       fill="#ffffff"
       id="path2" />
    <path
       d="M 1121.5,241 H 741 v -2 h 380.5 z"
       fill="#5e5e5e"
       id="path4" />
    <path
       d="M 741.03,241 H 740 v -2 h 1.03 z m 395.73,-1 -14.26,4.64 v -9.28 z"
       fill="#5e5e5e"
       id="path6" />
    <path
       d="m 1140,240 -18.5,6 v -12 z m -16.5,3.26 10.03,-3.26 -10.03,-3.26 z"
       fill="#5e5e5e"
       id="path8" />
    <use
       xlink:href="#a"
       transform="translate(1109.4124,258.22222)"
       id="use10"
       x="0"
       y="0"
       width="100%"
       height="100%" />
    <use
       xlink:href="#b"
       transform="translate(1134.1038,258.22222)"
       id="use12"
       x="0"
       y="0"
       width="100%"
       height="100%" />
    <path
       d="m 741,239 h -2 v -48.33 h 2 z"
       fill="#5e5e5e"
       id="path14" />
    <path
       d="m 741,240 h -2 v -1.03 h 2 z m 0.98,-70.67 h -3.96 l 1.98,-6.1 z"
       fill="#5e5e5e"
       id="path16" />
    <path
       d="m 743.03,169.33 h -2.1 l -0.93,-2.86 -0.93,2.86 h -2.1 L 740,160 Z"
       fill="#5e5e5e"
       id="path18" />
    <use
       xlink:href="#c"
       transform="translate(712.62228,183.55556)"
       id="use20"
       x="0"
       y="0"
       width="100%"
       height="100%" />
    <path
       d="m 740,241 v 80.5 m 0,-80.47 V 240"
       stroke="#5e5e5e"
       stroke-width="2"
       fill="none"
       id="path22" />
    <path
       d="m 740,336.76 -4.64,-14.26 h 9.28 z"
       stroke="#5e5e5e"
       stroke-width="2"
       fill="#5e5e5e"
       id="path24" />
    <path
       d="m 805,321.5 h -2 V 268 h 2 z m 0,-74.83 h -2 V 241 h 2 z"
       fill="#5e5e5e"
       id="path26" />
    <path
       d="m 805,241.03 h -2 V 240 h 2 z m -1,95.73 -4.64,-14.26 h 9.28 z"
       fill="#5e5e5e"
       id="path28" />
    <path
       d="m 804,340 -6,-18.5 h 12 z m -3.26,-16.5 3.26,10.03 3.26,-10.03 z"
       fill="#5e5e5e"
       id="path30" />
    <use
       xlink:href="#d"
       transform="translate(799.06673,260.88889)"
       id="use32"
       x="0"
       y="0"
       width="100%"
       height="100%" />
    <path
       d="m 881,321.5 h -2 V 264 h 2 z m 0,-78.83 h -2 V 241 h 2 z"
       fill="#5e5e5e"
       id="path34" />
    <path
       d="m 881,241.03 h -2 V 240 h 2 z m -1,95.73 -4.64,-14.26 h 9.28 z"
       fill="#5e5e5e"
       id="path36" />
    <path
       d="m 880,340 -6,-18.5 h 12 z m -3.26,-16.5 3.26,10.03 3.26,-10.03 z"
       fill="#5e5e5e"
       id="path38" />
    <use
       xlink:href="#e"
       transform="translate(875.06673,256.88889)"
       id="use40"
       x="0"
       y="0"
       width="100%"
       height="100%" />
    <path
       d="m 941,321.5 h -2 v -54.83 h 2 z m 0,-76.17 h -2 V 241 h 2 z"
       fill="#5e5e5e"
       id="path42" />
    <path
       d="m 941,241.03 h -2 V 240 h 2 z m -1,95.73 -4.64,-14.26 h 9.28 z"
       fill="#5e5e5e"
       id="path44" />
    <path
       d="m 940,340 -6,-18.5 h 12 z m -3.26,-16.5 3.26,10.03 3.26,-10.03 z"
       fill="#5e5e5e"
       id="path46" />
    <use
       xlink:href="#f"
       transform="translate(935.06673,259.55556)"
       id="use48"
       x="0"
       y="0"
       width="100%"
       height="100%" />
    <path
       d="m 1083.67,321.5 h -2 v -54.83 h 2 z m 0,-76.17 h -2 V 241 h 2 z"
       fill="#5e5e5e"
       id="path50" />
    <path
       d="m 1083.67,241.03 h -2 V 240 h 2 z m -1,95.73 -4.64,-14.26 h 9.27 z"
       fill="#5e5e5e"
       id="path52" />
    <path
       d="m 1082.67,340 -6.02,-18.5 h 12.03 z m -3.26,-16.5 3.27,10.03 3.26,-10.03 z"
       fill="#5e5e5e"
       id="path54" />
    <use
       xlink:href="#g"
       transform="translate(1073.289,259.55556)"
       id="use56"
       x="0"
       y="0"
       width="100%"
       height="100%" />
    <path
       d="m 741,340 h 340.67 m -340.64,0 H 740 m 341.64,0 h 1.03"
       stroke="#5e5e5e"
       stroke-width="2"
       fill="none"
       id="path58" />
    <use
       xlink:href="#h"
       transform="translate(867.65932,358.22222)"
       id="use60"
       x="0"
       y="0"
       width="100%"
       height="100%" />
    <path
       d="m 741,409.33 h -2 v -3 h 2 z m 0,-6.9 h -2 v -5.86 h 2 z m 0,-9.75 h -2 v -5.86 h 2 z m 0,-9.75 h -2 v -5.86 h 2 z m 0,-9.75 h -2 v -5.86 h 2 z m 0,-9.75 h -2 v -5.86 h 2 z m 0,-9.75 h -2 v -5.86 h 2 z m 0,-9.75 h -2 V 341 h 2 z"
       fill="#5e5e5e"
       id="path62" />
    <path
       fill="#5e5e5e"
       id="path64"
       d="" />
    <path
       d="m 741,341.03 h -2 V 340 h 2 z"
       fill="#5e5e5e"
       id="path66" />
    <use
       xlink:href="#i"
       transform="translate(734.3013,423.55556)"
       id="use68"
       x="0"
       y="0"
       width="100%"
       height="100%" />
    <path
       d="m 1083.65,341.02 -0.05,1.98 -0.2,3.08 -0.32,3.16 -0.5,3.28 -0.63,3.4 -0.83,3.5 -1.02,3.66 -1.25,3.83 -1.48,4 -1.77,4.2 -2.07,4.4 -2.43,4.63 -2.82,4.88 -3.26,5.16 -3.77,5.42 -4.34,5.7 -4.94,6 -5.64,6.25 -6.35,6.48 -7.1,6.67 -7.82,6.75 -8.5,6.74 -9.08,6.6 -9.48,6.3 -9.7,5.86 -9.68,5.32 -9.46,4.7 -9.07,4.04 -8.55,3.4 -7.95,2.75 -7.3,2.2 -6.7,1.73 -6.07,1.3 -5.5,0.93 -5,0.62 -4.55,0.4 h -0.43 l -50.47,1.7 -16.9,-0.57 -7.93,-0.8 -2.26,-0.33 -14.46,-3.02 -6.93,-3.25 -7.02,-4.58 -21.7,-17.77 -10.5,-11.75 -14.8,-21.6 1.65,-1.12 14.73,21.48 10.3,11.55 21.5,17.6 6.83,4.45 6.58,3.1 14.16,2.95 2.15,0.32 7.82,0.78 16.76,0.56 50.37,-1.67 0.4,-0.02 4.46,-0.37 4.93,-0.62 5.43,-0.9 6,-1.3 6.6,-1.68 7.22,-2.2 7.87,-2.73 8.47,-3.36 9,-4 9.37,-4.67 9.6,-5.28 9.62,-5.84 9.4,-6.25 9,-6.53 8.45,-6.7 7.77,-6.7 7.03,-6.6 6.3,-6.4 5.57,-6.2 4.9,-5.93 4.3,-5.63 3.7,-5.35 3.23,-5.07 2.78,-4.8 2.4,-4.57 2.03,-4.32 1.73,-4.1 1.46,-3.93 1.22,-3.74 1,-3.57 0.8,-3.44 0.64,-3.32 0.47,-3.2 0.32,-3.07 0.2,-3 0.03,-1.92 z"
       fill="#5e5e5e"
       id="path70" />
    <path
       d="m 1083.67,340.02 -0.03,1.03 -2,-0.04 0.03,-1.02 z m -325.91,83.52 -4.08,8.32 -7.98,-7.72 v -2.32 z"
       fill="#5e5e5e"
       id="path72" />
    <path
       d="m 759.26,422.74 -5.3,10.8 -8.26,-8 v -4.73 z m -5.88,7.45 2.87,-5.86 -10.44,-1.5 z"
       fill="#5e5e5e"
       id="path74" />
    <use
       xlink:href="#j"
       transform="translate(797.65916,454.66938)"
       id="use76"
       x="0"
       y="0"
       width="100%"
       height="100%" />
    <use
       xlink:href="#k"
       transform="translate(853.46163,454.66938)"
       id="use78"
       x="0"
       y="0"
       width="100%"
       height="100%" />
    <use
       xlink:href="#l"
       transform="translate(808.05422,476.00271)"
       id="use80"
       x="0"
       y="0"
       width="100%"
       height="100%" />
    <use
       xlink:href="#m"
       transform="translate(852.94311,476.00271)"
       id="use82"
       x="0"
       y="0"
       width="100%"
       height="100%" />
    <defs
       id="defs195">
      <path
         fill="#333333"
         d="m 23,0 v -37 h 61 v -169 l -59,37 v -38 l 62,-41 h 46 v 211 h 57 V 0 H 23"
         id="n" />
      <path
         fill="#333333"
         d="m 182,-182 c 0,78 -84,86 -111,141 H 186 V 0 H 12 c -6,-101 99,-100 120,-180 1,-22 -12,-31 -33,-32 -23,0 -32,14 -35,34 l -49,-3 c 5,-45 32,-70 84,-70 51,0 83,22 83,69"
         id="o" />
      <g
         id="a">
        <use
           transform="scale(0.04938272)"
           xlink:href="#n"
           id="use86"
           x="0"
           y="0"
           width="100%"
           height="100%" />
        <use
           transform="matrix(0.04938272,0,0,0.04938272,9.8765432,0)"
           xlink:href="#o"
           id="use88"
           x="0"
           y="0"
           width="100%"
           height="100%" />
      </g>
      <path
         fill="#333333"
         d="m 135,-194 c 53,0 70,44 70,98 0,56 -19,98 -73,100 -31,1 -45,-17 -59,-34 3,33 2,69 2,105 H 25 l -1,-265 h 48 c 2,10 0,23 3,31 11,-24 29,-35 60,-35 z m -21,164 c 33,0 39,-31 40,-66 0,-38 -9,-64 -40,-64 -56,0 -55,130 0,130"
         id="p" />
      <path
         fill="#333333"
         d="m 220,-157 c -53,9 -28,100 -34,157 h -49 v -107 c 1,-27 -5,-49 -29,-50 C 55,-147 81,-57 75,0 H 25 l -1,-190 h 47 c 2,12 -1,28 3,38 10,-53 101,-56 108,0 13,-22 24,-43 59,-42 82,1 51,116 57,194 h -49 v -107 c -1,-25 -5,-48 -29,-50"
         id="q" />
      <path
         fill="#333333"
         d="M 128,0 H 69 L 1,-190 h 53 l 45,150 48,-150 h 52"
         id="r" />
      <g
         id="b">
        <use
           transform="scale(0.04938272)"
           xlink:href="#p"
           id="use94"
           x="0"
           y="0"
           width="100%"
           height="100%" />
        <use
           transform="matrix(0.04938272,0,0,0.04938272,10.814815,0)"
           xlink:href="#q"
           id="use96"
           x="0"
           y="0"
           width="100%"
           height="100%" />
        <use
           transform="matrix(0.04938272,0,0,0.04938272,26.617284,0)"
           xlink:href="#r"
           id="use98"
           x="0"
           y="0"
           width="100%"
           height="100%" />
      </g>
      <path
         fill="#333333"
         d="M 147,0 H 94 L 2,-248 h 55 l 64,206 c 17,-72 42,-137 63,-206 h 54"
         id="s" />
      <path
         fill="#333333"
         d="m 24,-248 c 93,1 206,-16 204,79 -1,75 -69,88 -152,82 V 0 H 24 Z m 52,121 c 47,0 100,7 100,-41 0,-47 -54,-39 -100,-39 v 80"
         id="t" />
      <path
         fill="#333333"
         d="m 15,-148 v -39 h 180 v 39 z m 0,97 v -39 h 180 v 39 H 15"
         id="u" />
      <path
         fill="#333333"
         d="m 111,-147 c 44,9 85,22 84,75 -1,49 -35,65 -84,68 V 27 H 91 V -4 C 40,-5 12,-27 5,-72 l 45,-8 c 4,24 15,38 41,40 -2,-22 4,-51 -2,-69 -39,-10 -76,-22 -76,-72 0,-47 35,-60 78,-63 v -23 h 20 v 23 c 47,1 70,23 78,62 l -46,7 c -4,-18 -12,-32 -32,-34 z m -20,-63 c -33,-4 -45,46 -13,54 4,1 8,2 13,4 z m 20,170 c 39,5 53,-51 15,-60 -7,-2 -7,-2 -15,-4 v 64"
         id="v" />
      <path
         fill="#333333"
         d="m 110,-251 c 83,-7 118,89 53,130 -17,10 -36,21 -38,46 H 78 c 2,-56 65,-53 71,-103 2,-21 -15,-35 -38,-34 -25,1 -41,14 -44,38 l -50,-2 c 6,-48 39,-70 93,-75 z M 77,0 v -47 h 51 V 0 H 77"
         id="w" />
      <g
         id="c">
        <use
           transform="scale(0.04938272)"
           xlink:href="#s"
           id="use106"
           x="0"
           y="0"
           width="100%"
           height="100%" />
        <use
           transform="matrix(0.04938272,0,0,0.04938272,11.851852,0)"
           xlink:href="#t"
           id="use108"
           x="0"
           y="0"
           width="100%"
           height="100%" />
        <use
           transform="matrix(0.04938272,0,0,0.04938272,23.703704,0)"
           xlink:href="#u"
           id="use110"
           x="0"
           y="0"
           width="100%"
           height="100%" />
        <use
           transform="matrix(0.04938272,0,0,0.04938272,34.074074,0)"
           xlink:href="#v"
           id="use112"
           x="0"
           y="0"
           width="100%"
           height="100%" />
        <use
           transform="matrix(0.04938272,0,0,0.04938272,43.950617,0)"
           xlink:href="#w"
           id="use114"
           x="0"
           y="0"
           width="100%"
           height="100%" />
      </g>
      <use
         transform="scale(0.04938272)"
         xlink:href="#n"
         id="d"
         x="0"
         y="0"
         width="100%"
         height="100%" />
      <use
         transform="scale(0.04938272)"
         xlink:href="#o"
         id="e"
         x="0"
         y="0"
         width="100%"
         height="100%" />
      <path
         fill="#333333"
         d="m 128,-127 c 34,4 56,21 59,58 7,91 -148,94 -172,28 -4,-9 -6,-17 -7,-26 l 51,-5 c 1,24 16,35 40,36 23,0 39,-12 38,-36 -1,-31 -31,-36 -65,-34 v -40 c 32,2 59,-3 59,-33 0,-20 -13,-33 -34,-33 -21,0 -33,13 -35,32 l -50,-3 c 6,-44 37,-68 86,-68 50,0 83,20 83,66 0,35 -22,52 -53,58"
         id="x" />
      <use
         transform="scale(0.04938272)"
         xlink:href="#x"
         id="f"
         x="0"
         y="0"
         width="100%"
         height="100%" />
      <g
         id="g">
        <use
           transform="scale(0.04938272)"
           xlink:href="#n"
           id="use121"
           x="0"
           y="0"
           width="100%"
           height="100%" />
        <use
           transform="matrix(0.04938272,0,0,0.04938272,8.8888889,0)"
           xlink:href="#n"
           id="use123"
           x="0"
           y="0"
           width="100%"
           height="100%" />
      </g>
      <path
         fill="#333333"
         d="m 240,-174 c 0,40 -23,61 -54,70 L 253,0 H 194 L 137,-94 H 76 V 0 H 24 v -248 c 93,4 217,-23 216,74 z m -164,40 c 48,-2 112,12 112,-38 0,-48 -66,-32 -112,-35 v 73"
         id="y" />
      <path
         fill="#333333"
         d="M 165,-50 V 0 H 118 V -50 H 5 v -38 l 105,-160 h 55 v 161 h 33 v 37 z m -47,-37 2,-116 -74,116 h 72"
         id="z" />
      <path
         fill="#333333"
         d="m 101,-251 c 68,0 84,54 84,127 C 185,-50 166,4 99,4 32,4 15,-52 14,-124 c -1,-75 17,-127 87,-127 z m -1,216 c 37,-5 36,-46 36,-89 0,-43 4,-89 -36,-89 -39,0 -36,45 -36,89 0,43 -3,85 36,89"
         id="A" />
      <path
         fill="#333333"
         d="M 24,0 V -54 H 75 V 0 H 24"
         id="B" />
      <g
         id="h">
        <use
           transform="scale(0.04938272)"
           xlink:href="#y"
           id="use130"
           x="0"
           y="0"
           width="100%"
           height="100%" />
        <use
           transform="matrix(0.04938272,0,0,0.04938272,12.790123,0)"
           xlink:href="#u"
           id="use132"
           x="0"
           y="0"
           width="100%"
           height="100%" />
        <use
           transform="matrix(0.04938272,0,0,0.04938272,23.160494,0)"
           xlink:href="#v"
           id="use134"
           x="0"
           y="0"
           width="100%"
           height="100%" />
        <use
           transform="matrix(0.04938272,0,0,0.04938272,33.037037,0)"
           xlink:href="#z"
           id="use136"
           x="0"
           y="0"
           width="100%"
           height="100%" />
        <use
           transform="matrix(0.04938272,0,0,0.04938272,42.91358,0)"
           xlink:href="#A"
           id="use138"
           x="0"
           y="0"
           width="100%"
           height="100%" />
        <use
           transform="matrix(0.04938272,0,0,0.04938272,52.790123,0)"
           xlink:href="#B"
           id="use140"
           x="0"
           y="0"
           width="100%"
           height="100%" />
        <use
           transform="matrix(0.04938272,0,0,0.04938272,57.728395,0)"
           xlink:href="#A"
           id="use142"
           x="0"
           y="0"
           width="100%"
           height="100%" />
        <use
           transform="matrix(0.04938272,0,0,0.04938272,67.604938,0)"
           xlink:href="#A"
           id="use144"
           x="0"
           y="0"
           width="100%"
           height="100%" />
        <use
           transform="matrix(0.04938272,0,0,0.04938272,77.481481,0)"
           xlink:href="#A"
           id="use146"
           x="0"
           y="0"
           width="100%"
           height="100%" />
      </g>
      <path
         fill="#333333"
         d="M 93,-157 62,0 H 13 L 44,-157 H 16 l 6,-33 h 28 c 2,-54 40,-81 100,-68 l -6,32 c -29,-8 -44,9 -45,36 h 38 l -7,33 H 93"
         id="C" />
      <g
         id="i">
        <use
           transform="scale(0.04938272)"
           xlink:href="#C"
           id="use150"
           x="0"
           y="0"
           width="100%"
           height="100%" />
        <use
           transform="matrix(0.04938272,0,0,0.04938272,5.5308642,0)"
           xlink:href="#C"
           id="use152"
           x="0"
           y="0"
           width="100%"
           height="100%" />
      </g>
      <path
         fill="#333333"
         d="m 25,-224 v -37 h 50 v 37 z M 75,22 C 77,67 41,81 -6,73 V 38 C 16,43 25,33 25,11 V -190 H 75 V 22"
         id="D" />
      <path
         fill="#333333"
         d="m 249,-155 c 45,1 62,31 62,79 -1,48 -18,79 -63,79 -45,0 -61,-32 -62,-79 0,-48 16,-79 63,-79 z M 97,0 H 61 l 162,-248 h 36 z M 9,-172 c 0,-48 16,-79 63,-78 46,0 62,31 62,78 0,48 -18,79 -63,79 -45,0 -62,-31 -62,-79 z m 240,147 c 24,0 24,-26 24,-51 0,-26 -1,-52 -24,-52 -24,0 -25,26 -25,52 0,25 0,51 25,51 z M 71,-120 c 23,0 24,-25 24,-52 0,-26 0,-51 -23,-51 -25,0 -25,25 -25,51 0,27 1,52 24,52"
         id="E" />
      <g
         id="j">
        <use
           transform="scale(0.04938272)"
           xlink:href="#D"
           id="use157"
           x="0"
           y="0"
           width="100%"
           height="100%" />
        <use
           transform="matrix(0.04938272,0,0,0.04938272,4.9382716,0)"
           xlink:href="#u"
           id="use159"
           x="0"
           y="0"
           width="100%"
           height="100%" />
        <use
           transform="matrix(0.04938272,0,0,0.04938272,15.308642,0)"
           xlink:href="#x"
           id="use161"
           x="0"
           y="0"
           width="100%"
           height="100%" />
        <use
           transform="matrix(0.04938272,0,0,0.04938272,25.185185,0)"
           xlink:href="#A"
           id="use163"
           x="0"
           y="0"
           width="100%"
           height="100%" />
        <use
           transform="matrix(0.04938272,0,0,0.04938272,35.061728,0)"
           xlink:href="#E"
           id="use165"
           x="0"
           y="0"
           width="100%"
           height="100%" />
      </g>
      <path
         fill="#333333"
         d="m 135,-194 c 87,-1 58,113 63,194 h -50 c -7,-57 23,-157 -34,-157 -59,0 -34,97 -39,157 H 25 l -1,-190 h 47 c 2,12 -1,28 3,38 12,-26 28,-41 61,-42"
         id="F" />
      <path
         fill="#333333"
         d="M 133,-34 C 117,-15 103,5 69,4 32,3 11,-16 11,-54 c -1,-60 55,-63 116,-61 1,-26 -3,-47 -28,-47 -18,1 -26,9 -28,27 l -52,-2 c 7,-38 36,-58 82,-57 46,1 74,22 75,68 l 1,82 c -1,14 12,18 25,15 v 27 c -30,8 -71,5 -69,-32 z m -48,3 c 29,0 43,-24 42,-57 -32,0 -66,-3 -65,30 0,17 8,27 23,27"
         id="G" />
      <g
         id="k">
        <use
           transform="scale(0.04938272)"
           xlink:href="#F"
           id="use170"
           x="0"
           y="0"
           width="100%"
           height="100%" />
        <use
           transform="matrix(0.04938272,0,0,0.04938272,10.814815,0)"
           xlink:href="#G"
           id="use172"
           x="0"
           y="0"
           width="100%"
           height="100%" />
        <use
           transform="matrix(0.04938272,0,0,0.04938272,20.691358,0)"
           xlink:href="#q"
           id="use174"
           x="0"
           y="0"
           width="100%"
           height="100%" />
        <use
           transform="matrix(0.04938272,0,0,0.04938272,36.493827,0)"
           xlink:href="#r"
           id="use176"
           x="0"
           y="0"
           width="100%"
           height="100%" />
      </g>
      <g
         id="l">
        <use
           transform="scale(0.04938272)"
           xlink:href="#F"
           id="use179"
           x="0"
           y="0"
           width="100%"
           height="100%" />
        <use
           transform="matrix(0.04938272,0,0,0.04938272,10.814815,0)"
           xlink:href="#u"
           id="use181"
           x="0"
           y="0"
           width="100%"
           height="100%" />
        <use
           transform="matrix(0.04938272,0,0,0.04938272,21.185185,0)"
           xlink:href="#n"
           id="use183"
           x="0"
           y="0"
           width="100%"
           height="100%" />
        <use
           transform="matrix(0.04938272,0,0,0.04938272,30.074074,0)"
           xlink:href="#n"
           id="use185"
           x="0"
           y="0"
           width="100%"
           height="100%" />
      </g>
      <g
         id="m">
        <use
           transform="scale(0.04938272)"
           xlink:href="#p"
           id="use188"
           x="0"
           y="0"
           width="100%"
           height="100%" />
        <use
           transform="matrix(0.04938272,0,0,0.04938272,10.814815,0)"
           xlink:href="#q"
           id="use190"
           x="0"
           y="0"
           width="100%"
           height="100%" />
        <use
           transform="matrix(0.04938272,0,0,0.04938272,26.617284,0)"
           xlink:href="#r"
           id="use192"
           x="0"
           y="0"
           width="100%"
           height="100%" />
      </g>
    </defs>
  </g>
</svg>
